"Имеются данные разных стран об индексе розничных цен
 на продукты питания (х) и об индексе промышленного производства (у).
Построить уравнение зависимости y от x.",,,,,,,,,
,,,,,,,,,
№,"Индекс розничных цен 
на продукты питания (х)","Индекс промышленного 
производства (у)",,,,,,,
1,100,70,,,,,,,
2,105,79,,,,,,,
3,108,85,,,,,,,
4,113,84,,,,,,,
5,118,85,,,,,,,
6,118,85,,,,,,,
7,110,96,,,,,,,
8,115,99,,,,,,,
9,119,100,,,,,,,
10,118,98,,,,,,,
11,120,99,,,,,,,
12,124,102,,,,,,,
13,129,105,,,,,,,
14,132,112,,,,,,,
,,,,,,,,,
,,,,,,,,,
,ВЫВОД ИТОГОВ,,,,,,,,
,,,,,,,,,
,Регрессионная статистика,,,,,,,,
,Множественный R,0.863657357305241,,,,,,,
,R-квадрат,0.745904030827473,,,,,,,
,Нормированный R-квадрат,0.724729366729763,,,,,,,
,Стандартная ошибка,6.0670527096652,,,,,,,
,Наблюдения,14,,,,,,,
,,,,,,,,,
,Дисперсионный анализ,,,,,,,,
,,df,SS,MS,F,Значимость F,,,
,Регрессия,1,1296.64759987487,1296.64759987487,35.2262509282554,6.86897259657794E-05,,,
,Остаток,12,441.70954298227,36.8091285818558,,,,,
,Итого,13,1738.35714285714,,,,,,
,,,,,,,,,
,,Коэффициенты,Стандартная ошибка,t-статистика,P-Значение,Нижние 95%,Верхние 95%,"Нижние 95,0%","Верхние 95,0%"
,Y-пересечение,-38.9739351557533,22.258946492584,-1.75093350301814,0.105453174958917,-87.4720133486716,9.52414303716498,-87.4720133486716,9.52414303716498
,Переменная X 1,1.13237267782722,0.190790246826082,5.93517067389434,6.86897259657794E-05,0.716676440267179,1.54806891538727,0.716676440267179,1.54806891538727
,,,,,,,,,
,,,,,,,,,
,,,,,,,,,
,ВЫВОД ОСТАТКА,,,,,ВЫВОД ВЕРОЯТНОСТИ,,,
,,,,,,,,,
,Наблюдение,Предсказанное Y,Остатки,Стандартные остатки,,Персентиль,Y,,
,1,74.263332626969,-4.26333262696899,-0.731395868692372,,3.57142857142857,70,,
,2,79.9251960161051,-0.925196016105105,-0.158721967793304,,10.7142857142857,79,,
,3,83.3223140495868,1.67768595041322,0.287815350210625,,17.8571428571429,84,,
,4,88.9841774387229,-4.9841774387229,-0.85506037329847,,25,85,,
,5,94.646040827859,-9.64604082785901,-1.65482617192593,,32.1428571428571,85,,
,6,94.646040827859,-9.64604082785901,-1.65482617192593,,39.2857142857143,85,,
,7,85.5870594052412,10.4129405947588,1.78639163263229,,46.4285714285714,96,,
,8,91.2489227943774,7.75107720562265,1.32973575888646,,53.5714285714286,98,,
,9,95.7784135056862,4.22158649431377,0.724234112472656,,60.7142857142857,99,,
,10,94.646040827859,3.35395917214099,0.575388339804679,,67.8571428571429,99,,
,11,96.9107861835135,2.08921381648655,0.358414997818184,,75,100,,
,12,101.440276894822,0.559723105177639,0.0960232762860069,,82.1428571428571,102,,
,13,107.102140283958,-2.10214028395846,-0.360632597459821,,89.2857142857143,105,,
,14,110.49925831744,1.50074168255988,0.257459682984927,,96.4285714285714,112,,
