\relax 
\providecommand\babel@aux[2]{}
\@nameuse{bbl@beforestart}
\catcode `"\active 
\providecommand\hyper@newdestlabel[2]{}
\providecommand\HyperFirstAtBeginDocument{\AtBeginDocument}
\HyperFirstAtBeginDocument{\ifx\hyper@anchor\@undefined
\global\let\oldnewlabel\newlabel
\gdef\newlabel#1#2{\newlabelxx{#1}#2}
\gdef\newlabelxx#1#2#3#4#5#6{\oldnewlabel{#1}{{#2}{#3}}}
\AtEndDocument{\ifx\hyper@anchor\@undefined
\let\newlabel\oldnewlabel
\fi}
\fi}
\global\let\hyper@last\relax 
\gdef\HyperFirstAtBeginDocument#1{#1}
\providecommand\HyField@AuxAddToFields[1]{}
\providecommand\HyField@AuxAddToCoFields[2]{}
\providecommand \oddpage@label [2]{}
\babel@aux{russian}{}
\@writefile{toc}{\contentsline {section}{\numberline  {0.1}Цель работы}{2}{section.0.1}\protected@file@percent }
\@writefile{toc}{\contentsline {subsection}{\numberline  {0.1.1}Подготовка к ЛР}{2}{subsection.0.1.1}\protected@file@percent }
\@writefile{toc}{\contentsline {subsection}{\numberline  {0.1.2}Порядок выполнения}{2}{subsection.0.1.2}\protected@file@percent }
\@writefile{toc}{\contentsline {section}{\numberline  {0.2}Кодирование микроопераций регистра}{3}{section.0.2}\protected@file@percent }
\@writefile{lot}{\contentsline {table}{\numberline {0.1}{\ignorespaces Таблица микроопераций регистра\relax }}{3}{table.caption.1}\protected@file@percent }
\@writefile{toc}{\contentsline {section}{\numberline  {0.3}Функция возбуждения входа D триггера i-ого разряда}{3}{section.0.3}\protected@file@percent }
\@writefile{lot}{\contentsline {table}{\numberline {0.2}{\ignorespaces Таблица микроопераций регистра\relax }}{3}{table.caption.2}\protected@file@percent }
\@writefile{toc}{\contentsline {section}{\numberline  {0.4}Схема многофункционального регистра}{4}{section.0.4}\protected@file@percent }
\@writefile{toc}{\contentsline {section}{\numberline  {0.5}Описание регистра на VHDL}{5}{section.0.5}\protected@file@percent }
\@writefile{toc}{\contentsline {subsection}{\numberline  {0.5.1}Модель на VHDL}{5}{subsection.0.5.1}\protected@file@percent }
\@writefile{toc}{\contentsline {section}{\numberline  {0.6}Функциональное моделирование}{6}{section.0.6}\protected@file@percent }
\@writefile{toc}{\contentsline {section}{\numberline  {0.7}Динамические параметры регистров}{6}{section.0.7}\protected@file@percent }
\gdef \@abspage@last{7}
