\relax 
\providecommand\babel@aux[2]{}
\@nameuse{bbl@beforestart}
\catcode `"\active 
\providecommand\hyper@newdestlabel[2]{}
\providecommand\HyperFirstAtBeginDocument{\AtBeginDocument}
\HyperFirstAtBeginDocument{\ifx\hyper@anchor\@undefined
\global\let\oldnewlabel\newlabel
\gdef\newlabel#1#2{\newlabelxx{#1}#2}
\gdef\newlabelxx#1#2#3#4#5#6{\oldnewlabel{#1}{{#2}{#3}}}
\AtEndDocument{\ifx\hyper@anchor\@undefined
\let\newlabel\oldnewlabel
\fi}
\fi}
\global\let\hyper@last\relax 
\gdef\HyperFirstAtBeginDocument#1{#1}
\providecommand\HyField@AuxAddToFields[1]{}
\providecommand\HyField@AuxAddToCoFields[2]{}
\babel@aux{russian}{}
\@writefile{toc}{\contentsline {section}{\numberline  {0.1}Цель работы}{2}{section.0.1}\protected@file@percent }
\@writefile{toc}{\contentsline {subsection}{\numberline  {0.1.1}Подготовка к ЛР}{2}{subsection.0.1.1}\protected@file@percent }
\@writefile{toc}{\contentsline {subsection}{\numberline  {0.1.2}Порядок выполнения}{2}{subsection.0.1.2}\protected@file@percent }
\@writefile{toc}{\contentsline {section}{\numberline  {0.2}Таблица переходов и матрицы переходов триггеров}{3}{section.0.2}\protected@file@percent }
\@writefile{toc}{\contentsline {subsection}{\numberline  {0.2.1}Таблицы истинности}{3}{subsection.0.2.1}\protected@file@percent }
\@writefile{lot}{\contentsline {table}{\numberline {0.1}{\ignorespaces $\overline  {RS}$-триггер\relax }}{3}{table.caption.1}\protected@file@percent }
\@writefile{lot}{\contentsline {table}{\numberline {0.2}{\ignorespaces $RS$-триггер\relax }}{3}{table.caption.2}\protected@file@percent }
\@writefile{lot}{\contentsline {table}{\numberline {0.3}{\ignorespaces $D$-триггер\relax }}{3}{table.caption.3}\protected@file@percent }
\@writefile{lot}{\contentsline {table}{\numberline {0.4}{\ignorespaces $DV$-триггер\relax }}{3}{table.caption.4}\protected@file@percent }
\@writefile{lot}{\contentsline {table}{\numberline {0.5}{\ignorespaces $JK$-триггер\relax }}{4}{table.caption.5}\protected@file@percent }
\@writefile{toc}{\contentsline {subsection}{\numberline  {0.2.2}Матрицы переходов}{4}{subsection.0.2.2}\protected@file@percent }
\@writefile{lot}{\contentsline {table}{\numberline {0.6}{\ignorespaces $RS$-триггер\relax }}{4}{table.caption.6}\protected@file@percent }
\@writefile{lot}{\contentsline {table}{\numberline {0.7}{\ignorespaces $\overline  {RS}$-триггер\relax }}{4}{table.caption.7}\protected@file@percent }
\@writefile{lot}{\contentsline {table}{\numberline {0.8}{\ignorespaces $D$-триггер\relax }}{4}{table.caption.8}\protected@file@percent }
\@writefile{lot}{\contentsline {table}{\numberline {0.9}{\ignorespaces $DV$-триггер\relax }}{5}{table.caption.9}\protected@file@percent }
\@writefile{lot}{\contentsline {table}{\numberline {0.10}{\ignorespaces $JK$-триггер\relax }}{5}{table.caption.10}\protected@file@percent }
\@writefile{toc}{\contentsline {section}{\numberline  {0.3}Синтез триггера с заданной таблицей перехода}{5}{section.0.3}\protected@file@percent }
\@writefile{lot}{\contentsline {table}{\numberline {0.11}{\ignorespaces Вариант 0216\relax }}{5}{table.caption.11}\protected@file@percent }
\@writefile{toc}{\contentsline {subsection}{\numberline  {0.3.1}Двухступенчатый триггер}{6}{subsection.0.3.1}\protected@file@percent }
\@writefile{lot}{\contentsline {table}{\numberline {0.12}{\ignorespaces TT\relax }}{6}{table.caption.12}\protected@file@percent }
\@writefile{toc}{\contentsline {subsubsection}{Минимализация}{6}{table.caption.12}\protected@file@percent }
\@writefile{lot}{\contentsline {table}{\numberline {0.13}{\ignorespaces Эталонная диаграмма Вейча\relax }}{6}{table.caption.13}\protected@file@percent }
\providecommand*\caption@xref[2]{\@setref\relax\@undefined{#1}}
\newlabel{tab2}{{0.13}{6}{Эталонная диаграмма Вейча\relax }{table.caption.13}{}}
\@writefile{lot}{\contentsline {table}{\numberline {0.14}{\ignorespaces f1\relax }}{7}{table.caption.14}\protected@file@percent }
\newlabel{tab2}{{0.14}{7}{f1\relax }{table.caption.14}{}}
\@writefile{lot}{\contentsline {table}{\numberline {0.15}{\ignorespaces f2\relax }}{7}{table.caption.15}\protected@file@percent }
\newlabel{tab2}{{0.15}{7}{f2\relax }{table.caption.15}{}}
\@writefile{toc}{\contentsline {subsubsection}{Функции возбуждений}{7}{table.caption.15}\protected@file@percent }
\@writefile{toc}{\contentsline {subsection}{\numberline  {0.3.2}ТТ с инвертором, И-НЕ и асинронными входами NR, NS}{7}{subsection.0.3.2}\protected@file@percent }
\@writefile{toc}{\contentsline {subsection}{\numberline  {0.3.3}На основе JK-триггера}{8}{subsection.0.3.3}\protected@file@percent }
\@writefile{lot}{\contentsline {table}{\numberline {0.16}{\ignorespaces JK\relax }}{8}{table.caption.16}\protected@file@percent }
\@writefile{toc}{\contentsline {subsubsection}{Минимизация}{8}{table.caption.16}\protected@file@percent }
\@writefile{lot}{\contentsline {table}{\numberline {0.17}{\ignorespaces Эталонная диаграмма Вейча\relax }}{8}{table.caption.17}\protected@file@percent }
\@writefile{lot}{\contentsline {table}{\numberline {0.18}{\ignorespaces J\relax }}{8}{table.caption.18}\protected@file@percent }
\@writefile{lot}{\contentsline {table}{\numberline {0.19}{\ignorespaces K\relax }}{8}{table.caption.19}\protected@file@percent }
\@writefile{toc}{\contentsline {subsubsection}{Результат}{9}{table.caption.19}\protected@file@percent }
\@writefile{toc}{\contentsline {subsection}{\numberline  {0.3.4}На основе DV-триггера}{9}{subsection.0.3.4}\protected@file@percent }
\@writefile{lot}{\contentsline {table}{\numberline {0.20}{\ignorespaces DV\relax }}{9}{table.caption.20}\protected@file@percent }
\@writefile{toc}{\contentsline {subsubsection}{Минимизация}{9}{table.caption.20}\protected@file@percent }
\@writefile{lot}{\contentsline {table}{\numberline {0.21}{\ignorespaces Эталонная диаграмма Вейча\relax }}{9}{table.caption.21}\protected@file@percent }
\@writefile{lot}{\contentsline {table}{\numberline {0.22}{\ignorespaces D\relax }}{9}{table.caption.22}\protected@file@percent }
\@writefile{lot}{\contentsline {table}{\numberline {0.23}{\ignorespaces V\relax }}{10}{table.caption.23}\protected@file@percent }
\@writefile{toc}{\contentsline {subsubsection}{Результат}{10}{table.caption.23}\protected@file@percent }
\@writefile{toc}{\contentsline {section}{\numberline  {0.4}Модель на VHDL}{10}{section.0.4}\protected@file@percent }
\@writefile{toc}{\contentsline {subsection}{\numberline  {0.4.1}Таблица истинности}{10}{subsection.0.4.1}\protected@file@percent }
\@writefile{lot}{\contentsline {table}{\numberline {0.24}{\ignorespaces DV\relax }}{10}{table.caption.24}\protected@file@percent }
\@writefile{toc}{\contentsline {subsubsection}{Минимализация}{10}{table.caption.24}\protected@file@percent }
\@writefile{lot}{\contentsline {table}{\numberline {0.25}{\ignorespaces Эталонная диаграмма Вейча\relax }}{10}{table.caption.25}\protected@file@percent }
\@writefile{lot}{\contentsline {table}{\numberline {0.26}{\ignorespaces Q(t+1)\relax }}{11}{table.caption.26}\protected@file@percent }
\@writefile{toc}{\contentsline {subsubsection}{Результат}{11}{table.caption.26}\protected@file@percent }
\@writefile{toc}{\contentsline {subsubsection}{Код}{11}{table.caption.26}\protected@file@percent }
\@writefile{toc}{\contentsline {section}{\numberline  {0.5}Выражения для задержек}{12}{section.0.5}\protected@file@percent }
\@writefile{lot}{\contentsline {table}{\numberline {0.27}{\ignorespaces Задержки\relax }}{12}{table.caption.27}\protected@file@percent }
\@writefile{toc}{\contentsline {section}{\numberline  {0.6}Временные диаграммы}{13}{section.0.6}\protected@file@percent }
\gdef \@abspage@last{14}
