\relax 
\providecommand\babel@aux[2]{}
\@nameuse{bbl@beforestart}
\catcode `"\active 
\providecommand\hyper@newdestlabel[2]{}
\providecommand\HyperFirstAtBeginDocument{\AtBeginDocument}
\HyperFirstAtBeginDocument{\ifx\hyper@anchor\@undefined
\global\let\oldnewlabel\newlabel
\gdef\newlabel#1#2{\newlabelxx{#1}#2}
\gdef\newlabelxx#1#2#3#4#5#6{\oldnewlabel{#1}{{#2}{#3}}}
\AtEndDocument{\ifx\hyper@anchor\@undefined
\let\newlabel\oldnewlabel
\fi}
\fi}
\global\let\hyper@last\relax 
\gdef\HyperFirstAtBeginDocument#1{#1}
\providecommand\HyField@AuxAddToFields[1]{}
\providecommand\HyField@AuxAddToCoFields[2]{}
\babel@aux{russian}{}
\@writefile{toc}{\contentsline {section}{\numberline  {0.1}Цель работы}{2}{section.0.1}\protected@file@percent }
\@writefile{toc}{\contentsline {subsection}{\numberline  {0.1.1}Подготовка к ЛР}{2}{subsection.0.1.1}\protected@file@percent }
\@writefile{toc}{\contentsline {subsection}{\numberline  {0.1.2}Порядок выполнения}{2}{subsection.0.1.2}\protected@file@percent }
\@writefile{toc}{\contentsline {section}{\numberline  {0.2}Таблица переходов и матрицы переходов триггеров}{4}{section.0.2}\protected@file@percent }
\@writefile{toc}{\contentsline {subsection}{\numberline  {0.2.1}Таблицы истинности}{4}{subsection.0.2.1}\protected@file@percent }
\@writefile{lot}{\contentsline {table}{\numberline {0.1}{\ignorespaces $T$-триггер\relax }}{4}{table.caption.1}\protected@file@percent }
\@writefile{lot}{\contentsline {table}{\numberline {0.2}{\ignorespaces $DV$-триггер\relax }}{4}{table.caption.2}\protected@file@percent }
\@writefile{toc}{\contentsline {subsection}{\numberline  {0.2.2}Матрицы переходов}{4}{subsection.0.2.2}\protected@file@percent }
\@writefile{lot}{\contentsline {table}{\numberline {0.3}{\ignorespaces $T$-триггер\relax }}{4}{table.caption.3}\protected@file@percent }
\@writefile{lot}{\contentsline {table}{\numberline {0.4}{\ignorespaces $DV$-триггер\relax }}{4}{table.caption.4}\protected@file@percent }
\@writefile{toc}{\contentsline {section}{\numberline  {0.3}Проектирование двухразрядного двоично-десятичного счетчика на DV-триггере}{5}{section.0.3}\protected@file@percent }
\@writefile{lot}{\contentsline {table}{\numberline {0.5}{\ignorespaces Вариант 8275\relax }}{5}{table.caption.5}\protected@file@percent }
\@writefile{lot}{\contentsline {table}{\numberline {0.6}{\ignorespaces Таблица переходом и функция возбуждения DV-триггеров счетчика\relax }}{5}{table.caption.6}\protected@file@percent }
\@writefile{toc}{\contentsline {subsubsection}{Минимализация}{6}{table.caption.6}\protected@file@percent }
\@writefile{lot}{\contentsline {table}{\numberline {0.7}{\ignorespaces Эталонная диаграмма Вейча\relax }}{6}{table.caption.7}\protected@file@percent }
\providecommand*\caption@xref[2]{\@setref\relax\@undefined{#1}}
\newlabel{tab2}{{0.7}{6}{Эталонная диаграмма Вейча\relax }{table.caption.7}{}}
\@writefile{lot}{\contentsline {table}{\numberline {0.8}{\ignorespaces D3\relax }}{6}{table.caption.8}\protected@file@percent }
\newlabel{tab2}{{0.8}{6}{D3\relax }{table.caption.8}{}}
\@writefile{lot}{\contentsline {table}{\numberline {0.9}{\ignorespaces V3\relax }}{6}{table.caption.9}\protected@file@percent }
\newlabel{tab2}{{0.9}{6}{V3\relax }{table.caption.9}{}}
\@writefile{lot}{\contentsline {table}{\numberline {0.10}{\ignorespaces D2\relax }}{7}{table.caption.10}\protected@file@percent }
\newlabel{tab2}{{0.10}{7}{D2\relax }{table.caption.10}{}}
\@writefile{lot}{\contentsline {table}{\numberline {0.11}{\ignorespaces V2\relax }}{7}{table.caption.11}\protected@file@percent }
\newlabel{tab2}{{0.11}{7}{V2\relax }{table.caption.11}{}}
\@writefile{lot}{\contentsline {table}{\numberline {0.12}{\ignorespaces D1\relax }}{7}{table.caption.12}\protected@file@percent }
\newlabel{tab2}{{0.12}{7}{D1\relax }{table.caption.12}{}}
\@writefile{lot}{\contentsline {table}{\numberline {0.13}{\ignorespaces V1\relax }}{7}{table.caption.13}\protected@file@percent }
\newlabel{tab2}{{0.13}{7}{V1\relax }{table.caption.13}{}}
\@writefile{lot}{\contentsline {table}{\numberline {0.14}{\ignorespaces D0\relax }}{8}{table.caption.14}\protected@file@percent }
\newlabel{tab2}{{0.14}{8}{D0\relax }{table.caption.14}{}}
\@writefile{lot}{\contentsline {table}{\numberline {0.15}{\ignorespaces v0\relax }}{8}{table.caption.15}\protected@file@percent }
\newlabel{tab2}{{0.15}{8}{v0\relax }{table.caption.15}{}}
\@writefile{lot}{\contentsline {table}{\numberline {0.16}{\ignorespaces TC\relax }}{8}{table.caption.16}\protected@file@percent }
\newlabel{tab2}{{0.16}{8}{TC\relax }{table.caption.16}{}}
\@writefile{toc}{\contentsline {section}{\numberline  {0.4}Разработать делитель частоты N = 7, S = 2}{9}{section.0.4}\protected@file@percent }
\@writefile{toc}{\contentsline {subsection}{\numberline  {0.4.1}На Т-триггерах}{9}{subsection.0.4.1}\protected@file@percent }
\@writefile{lot}{\contentsline {table}{\numberline {0.17}{\ignorespaces Таблица переходов и функция возбуждения T-триггеров\relax }}{9}{table.caption.17}\protected@file@percent }
\@writefile{toc}{\contentsline {subsubsection}{Минимизация}{9}{table.caption.17}\protected@file@percent }
\@writefile{lot}{\contentsline {table}{\numberline {0.18}{\ignorespaces Эталонная диаграмма\relax }}{9}{table.caption.18}\protected@file@percent }
\@writefile{lot}{\contentsline {table}{\numberline {0.19}{\ignorespaces T2\relax }}{9}{table.caption.19}\protected@file@percent }
\@writefile{lot}{\contentsline {table}{\numberline {0.20}{\ignorespaces T1\relax }}{10}{table.caption.20}\protected@file@percent }
\@writefile{lot}{\contentsline {table}{\numberline {0.21}{\ignorespaces T0\relax }}{10}{table.caption.21}\protected@file@percent }
\@writefile{toc}{\contentsline {subsection}{\numberline  {0.4.2}НА CD4}{10}{subsection.0.4.2}\protected@file@percent }
\@writefile{lot}{\contentsline {table}{\numberline {0.22}{\ignorespaces T0\relax }}{10}{table.caption.22}\protected@file@percent }
\@writefile{toc}{\contentsline {subsection}{\numberline  {0.4.3}Модель на VHDL}{11}{subsection.0.4.3}\protected@file@percent }
\@writefile{toc}{\contentsline {section}{\numberline  {0.5}Схема для исследования счетчиков}{12}{section.0.5}\protected@file@percent }
\@writefile{toc}{\contentsline {subsection}{\numberline  {0.5.1}Группы работают параллельно}{12}{subsection.0.5.1}\protected@file@percent }
\@writefile{toc}{\contentsline {subsection}{\numberline  {0.5.2}Группы соединены последовательно}{12}{subsection.0.5.2}\protected@file@percent }
\@writefile{toc}{\contentsline {subsection}{\numberline  {0.5.3}Записать в счетчик заданное число за 10 тактов}{12}{subsection.0.5.3}\protected@file@percent }
\gdef \@abspage@last{13}
