\relax 
\providecommand\babel@aux[2]{}
\@nameuse{bbl@beforestart}
\catcode `"\active 
\providecommand\hyper@newdestlabel[2]{}
\providecommand\HyperFirstAtBeginDocument{\AtBeginDocument}
\HyperFirstAtBeginDocument{\ifx\hyper@anchor\@undefined
\global\let\oldnewlabel\newlabel
\gdef\newlabel#1#2{\newlabelxx{#1}#2}
\gdef\newlabelxx#1#2#3#4#5#6{\oldnewlabel{#1}{{#2}{#3}}}
\AtEndDocument{\ifx\hyper@anchor\@undefined
\let\newlabel\oldnewlabel
\fi}
\fi}
\global\let\hyper@last\relax 
\gdef\HyperFirstAtBeginDocument#1{#1}
\providecommand\HyField@AuxAddToFields[1]{}
\providecommand\HyField@AuxAddToCoFields[2]{}
\providecommand \oddpage@label [2]{}
\babel@aux{russian}{}
\@writefile{toc}{\contentsline {chapter}{\numberline  {1}Проектирование блока операций}{3}{chapter.1}\protected@file@percent }
\@writefile{lof}{\runinsectionskip }
\@writefile{lot}{\runinsectionskip }
\@writefile{toc}{\contentsline {section}{\numberline  {1.1}Алгоритм выполнений операций}{3}{section.1.1}\protected@file@percent }
\@writefile{toc}{\contentsline {subsection}{\numberline  {1.1.1}Алгоритм операции умножение}{3}{subsection.1.1.1}\protected@file@percent }
\@writefile{toc}{\contentsline {subsection}{\numberline  {1.1.2}Алгоритм операции вычитания}{4}{subsection.1.1.2}\protected@file@percent }
\@writefile{toc}{\contentsline {subsection}{\numberline  {1.1.3}Примеры}{5}{subsection.1.1.3}\protected@file@percent }
\@writefile{toc}{\contentsline {subsubsection}{Примеры операции умножения}{5}{subsection.1.1.3}\protected@file@percent }
\@writefile{lot}{\contentsline {table}{\numberline {1.1}{\ignorespaces Пример операции УМНОЖЕНИЯ\relax }}{5}{table.caption.1}\protected@file@percent }
\@writefile{lot}{\contentsline {table}{\numberline {1.2}{\ignorespaces Пример операции УМНОЖЕНИЯ\relax }}{6}{table.caption.2}\protected@file@percent }
\@writefile{toc}{\contentsline {subsubsection}{Примеры операции вычитания}{7}{table.caption.2}\protected@file@percent }
\@writefile{toc}{\contentsline {section}{\numberline  {1.2}Функциональная схема блока операций}{8}{section.1.2}\protected@file@percent }
\@writefile{toc}{\contentsline {subsection}{\numberline  {1.2.1}Проектирование логических элементом блока операций}{8}{subsection.1.2.1}\protected@file@percent }
\@writefile{toc}{\contentsline {subsubsection}{Регистр первого операнда RA}{8}{subsection.1.2.1}\protected@file@percent }
\@writefile{lot}{\contentsline {table}{\numberline {1.3}{\ignorespaces Таблица управляющих сигналов RA\relax }}{8}{table.caption.5}\protected@file@percent }
\@writefile{toc}{\contentsline {subsubsection}{Регистр второго операнда RB}{9}{table.caption.5}\protected@file@percent }
\@writefile{lot}{\contentsline {table}{\numberline {1.4}{\ignorespaces Таблица управляющих сигналов RB\relax }}{9}{table.caption.6}\protected@file@percent }
\@writefile{toc}{\contentsline {subsubsection}{Регистр частичных сумм RRT}{9}{table.caption.6}\protected@file@percent }
\@writefile{lot}{\contentsline {table}{\numberline {1.5}{\ignorespaces Таблица управляющих сигналов RRT\relax }}{9}{table.caption.7}\protected@file@percent }
\@writefile{toc}{\contentsline {subsection}{\numberline  {1.2.2}Регистр результата RR}{10}{subsection.1.2.2}\protected@file@percent }
\@writefile{lot}{\contentsline {table}{\numberline {1.6}{\ignorespaces Таблица управляющих сигналов RR\relax }}{10}{table.caption.8}\protected@file@percent }
\@writefile{toc}{\contentsline {subsection}{\numberline  {1.2.3}Регистр признака RPR}{10}{subsection.1.2.3}\protected@file@percent }
\@writefile{lot}{\contentsline {table}{\numberline {1.7}{\ignorespaces Таблица управляющих сигналов RPR\relax }}{10}{table.caption.9}\protected@file@percent }
\@writefile{toc}{\contentsline {subsubsection}{Комбинационная схема КС1}{11}{table.caption.9}\protected@file@percent }
\@writefile{lot}{\contentsline {table}{\numberline {1.8}{\ignorespaces Таблица истинности КС1\relax }}{11}{table.caption.10}\protected@file@percent }
\@writefile{toc}{\contentsline {subsubsection}{Комбинационная схема КС2}{11}{table.caption.10}\protected@file@percent }
\@writefile{lot}{\contentsline {table}{\numberline {1.9}{\ignorespaces Таблица истинности КС2\relax }}{11}{table.caption.11}\protected@file@percent }
\@writefile{toc}{\contentsline {subsubsection}{Комбинационная схема КС3}{12}{table.caption.11}\protected@file@percent }
\@writefile{lot}{\contentsline {table}{\numberline {1.10}{\ignorespaces Таблица истинности КС3\relax }}{12}{table.caption.12}\protected@file@percent }
\@writefile{toc}{\contentsline {subsubsection}{Комбинационная схема КС4}{13}{table.caption.12}\protected@file@percent }
\@writefile{lot}{\contentsline {table}{\numberline {1.11}{\ignorespaces Таблица истинности КС4\relax }}{13}{table.caption.13}\protected@file@percent }
\@writefile{toc}{\contentsline {subsubsection}{Комбинационная схема КС5}{13}{table.caption.13}\protected@file@percent }
\@writefile{lot}{\contentsline {table}{\numberline {1.12}{\ignorespaces Таблица истинности КС5\relax }}{13}{table.caption.14}\protected@file@percent }
\@writefile{toc}{\contentsline {subsubsection}{Сумматор SM}{14}{table.caption.14}\protected@file@percent }
\@writefile{toc}{\contentsline {subsubsection}{Логическая схема АЛУ}{15}{table.caption.14}\protected@file@percent }
\@writefile{toc}{\contentsline {section}{\numberline  {1.3}Управляющие сигналы и сигналы-признаки блока операций}{16}{section.1.3}\protected@file@percent }
\@writefile{lot}{\contentsline {table}{\numberline {1.13}{\ignorespaces Таблица управляющих сигналов блока операций\relax }}{16}{table.caption.15}\protected@file@percent }
\@writefile{toc}{\contentsline {subsection}{\numberline  {1.3.1}Микропрограммы выполнения операций}{16}{subsection.1.3.1}\protected@file@percent }
\@writefile{toc}{\contentsline {subsubsection}{Микропрограмма операции умножения}{16}{subsection.1.3.1}\protected@file@percent }
\@writefile{toc}{\contentsline {subsubsection}{Микропрограмма операции вычитания}{17}{subsection.1.3.1}\protected@file@percent }
\@writefile{toc}{\contentsline {chapter}{\numberline  {2}Проектирование схемного местного устройства управления}{19}{chapter.2}\protected@file@percent }
\@writefile{lof}{\runinsectionskip }
\@writefile{lot}{\runinsectionskip }
\@writefile{toc}{\contentsline {section}{\numberline  {2.1}Проектирование датчиков состояний}{19}{section.2.1}\protected@file@percent }
\@writefile{toc}{\contentsline {subsection}{\numberline  {2.1.1}Выражение для D-входов триггеров}{19}{subsection.2.1.1}\protected@file@percent }
\@writefile{toc}{\contentsline {subsection}{\numberline  {2.1.2}Выражение для управляющих сигналов}{20}{subsection.2.1.2}\protected@file@percent }
\@writefile{toc}{\contentsline {section}{\numberline  {2.2}Логическая схема МУУ}{20}{section.2.2}\protected@file@percent }
\@writefile{toc}{\contentsline {section}{\numberline  {2.3}Размещение схемы арифметико-логического устройства на кристале}{21}{section.2.3}\protected@file@percent }
\@writefile{toc}{\contentsline {section}{\numberline  {2.4}Временное моделирование}{21}{section.2.4}\protected@file@percent }
\@writefile{lot}{\contentsline {table}{\numberline {2.1}{\ignorespaces Временные параметры АЛУ\relax }}{23}{table.caption.16}\protected@file@percent }
\@writefile{toc}{\contentsline {section}{\numberline  {2.5}Функциональное моделирование АЛУ}{23}{section.2.5}\protected@file@percent }
\@writefile{toc}{\contentsline {chapter}{\numberline  {3}Проектирование блока управления командами}{25}{chapter.3}\protected@file@percent }
\@writefile{lof}{\runinsectionskip }
\@writefile{lot}{\runinsectionskip }
\@writefile{toc}{\contentsline {section}{\numberline  {3.1}Система памяти}{25}{section.3.1}\protected@file@percent }
\@writefile{lot}{\contentsline {table}{\numberline {3.1}{\ignorespaces Адресация физической памяти\relax }}{25}{table.caption.17}\protected@file@percent }
\@writefile{toc}{\contentsline {section}{\numberline  {3.2}Формат команд и способы адресации}{25}{section.3.2}\protected@file@percent }
\@writefile{toc}{\contentsline {subsection}{\numberline  {3.2.1}Регистровая адресация}{26}{subsection.3.2.1}\protected@file@percent }
\@writefile{toc}{\contentsline {subsection}{\numberline  {3.2.2}Автодекрементная адресация (вариант 2)}{26}{subsection.3.2.2}\protected@file@percent }
\@writefile{toc}{\contentsline {subsection}{\numberline  {3.2.3}Формат команд}{26}{subsection.3.2.3}\protected@file@percent }
\@writefile{lot}{\contentsline {table}{\numberline {3.2}{\ignorespaces Кодирование операций\relax }}{26}{table.caption.18}\protected@file@percent }
\@writefile{toc}{\contentsline {section}{\numberline  {3.3}Алгоритм работы БУК}{28}{section.3.3}\protected@file@percent }
\@writefile{toc}{\contentsline {section}{\numberline  {3.4}Функциональная схема БУК}{29}{section.3.4}\protected@file@percent }
\@writefile{lot}{\contentsline {table}{\numberline {3.3}{\ignorespaces Функциональное назначение элементов\relax }}{29}{table.caption.19}\protected@file@percent }
\@writefile{toc}{\contentsline {section}{\numberline  {3.5}Логическая схема блока управления командами}{30}{section.3.5}\protected@file@percent }
\@writefile{toc}{\contentsline {section}{\numberline  {3.6}Схема алгоритма микропрограммы выполнения команд}{31}{section.3.6}\protected@file@percent }
\@writefile{toc}{\contentsline {section}{\numberline  {3.7}Тестирование БУК}{31}{section.3.7}\protected@file@percent }
\@writefile{lot}{\contentsline {table}{\numberline {3.4}{\ignorespaces Начальные значение программы тестрования\relax }}{32}{table.caption.20}\protected@file@percent }
\@writefile{lot}{\contentsline {table}{\numberline {3.5}{\ignorespaces Алгоритм тестирования\relax }}{33}{table.caption.21}\protected@file@percent }
\@writefile{lot}{\contentsline {table}{\numberline {3.6}{\ignorespaces Карта загрузки ОП\relax }}{34}{table.caption.22}\protected@file@percent }
\@writefile{lol}{\contentsline {lstlisting}{;}{34}{lstlisting.3.-1}\protected@file@percent }
\@writefile{lot}{\contentsline {table}{\numberline {3.7}{\ignorespaces Карта загрузки RP\relax }}{35}{table.caption.23}\protected@file@percent }
\@writefile{toc}{\contentsline {chapter}{\numberline  {4}Проектирование блока выработки микрокоманд}{36}{chapter.4}\protected@file@percent }
\@writefile{lof}{\runinsectionskip }
\@writefile{lot}{\runinsectionskip }
\@writefile{toc}{\contentsline {section}{\numberline  {4.1}Определение формата микрокоманд}{36}{section.4.1}\protected@file@percent }
\@writefile{lot}{\contentsline {table}{\numberline {4.1}{\ignorespaces Формат операционной и управляющей микрокоманд\relax }}{36}{table.caption.24}\protected@file@percent }
\@writefile{toc}{\contentsline {section}{\numberline  {4.2}Модифицированный алгоритм микропрограммы выполнения команд}{37}{section.4.2}\protected@file@percent }
\@writefile{toc}{\contentsline {section}{\numberline  {4.3}Cхема БМК}{38}{section.4.3}\protected@file@percent }
\@writefile{lot}{\contentsline {table}{\numberline {4.2}{\ignorespaces Функциональное назначение элементов\relax }}{38}{table.caption.25}\protected@file@percent }
\@writefile{lot}{\contentsline {table}{\numberline {4.3}{\ignorespaces Карта загрузки управляющей памяти\relax }}{39}{table.caption.26}\protected@file@percent }
\@writefile{toc}{\contentsline {section}{\numberline  {4.4}Заключение}{41}{section.4.4}\protected@file@percent }
\@writefile{toc}{\contentsline {section}{\numberline  {4.5}Использованная литература}{42}{section.4.5}\protected@file@percent }
\gdef \@abspage@last{43}
