\relax 
\providecommand\babel@aux[2]{}
\@nameuse{bbl@beforestart}
\catcode `"\active 
\providecommand\hyper@newdestlabel[2]{}
\providecommand\HyperFirstAtBeginDocument{\AtBeginDocument}
\HyperFirstAtBeginDocument{\ifx\hyper@anchor\@undefined
\global\let\oldnewlabel\newlabel
\gdef\newlabel#1#2{\newlabelxx{#1}#2}
\gdef\newlabelxx#1#2#3#4#5#6{\oldnewlabel{#1}{{#2}{#3}}}
\AtEndDocument{\ifx\hyper@anchor\@undefined
\let\newlabel\oldnewlabel
\fi}
\fi}
\global\let\hyper@last\relax 
\gdef\HyperFirstAtBeginDocument#1{#1}
\providecommand\HyField@AuxAddToFields[1]{}
\providecommand\HyField@AuxAddToCoFields[2]{}
\providecommand \oddpage@label [2]{}
\babel@aux{russian}{}
\@writefile{toc}{\contentsline {section}{\numberline  {0.1}Цель работы}{2}{section.0.1}\protected@file@percent }
\@writefile{toc}{\contentsline {subsection}{\numberline  {0.1.1}Подготовка к ЛР}{2}{subsection.0.1.1}\protected@file@percent }
\@writefile{toc}{\contentsline {subsection}{\numberline  {0.1.2}Порядок выполнения}{2}{subsection.0.1.2}\protected@file@percent }
\@writefile{toc}{\contentsline {section}{\numberline  {0.2}Комбинационная схема, построенная по функции, заданной в варианте}{3}{section.0.2}\protected@file@percent }
\@writefile{lot}{\contentsline {table}{\numberline {0.1}{\ignorespaces \relax }}{3}{table.caption.1}\protected@file@percent }
\providecommand*\caption@xref[2]{\@setref\relax\@undefined{#1}}
\newlabel{tab1}{{0.1}{3}{\relax }{table.caption.1}{}}
\@writefile{lot}{\contentsline {table}{\numberline {0.2}{\ignorespaces Эталонная карта карно\relax }}{3}{table.caption.2}\protected@file@percent }
\newlabel{tab2}{{0.2}{3}{Эталонная карта карно\relax }{table.caption.2}{}}
\@writefile{lot}{\contentsline {table}{\numberline {0.3}{\ignorespaces Карта для заданной функции\relax }}{4}{table.caption.3}\protected@file@percent }
\newlabel{tab2}{{0.3}{4}{Карта для заданной функции\relax }{table.caption.3}{}}
\@writefile{lot}{\contentsline {table}{\numberline {0.4}{\ignorespaces Эталонная диаграмма Вейча\relax }}{4}{table.caption.4}\protected@file@percent }
\newlabel{tab2}{{0.4}{4}{Эталонная диаграмма Вейча\relax }{table.caption.4}{}}
\@writefile{lot}{\contentsline {table}{\numberline {0.5}{\ignorespaces диаграмма для заданной функции\relax }}{4}{table.caption.5}\protected@file@percent }
\newlabel{tab2}{{0.5}{4}{диаграмма для заданной функции\relax }{table.caption.5}{}}
\@writefile{toc}{\contentsline {section}{\numberline  {0.3}Этап определения состязаний в комбинационной схеме}{5}{section.0.3}\protected@file@percent }
\@writefile{toc}{\contentsline {subsection}{\numberline  {0.3.1}Статические состязания}{5}{subsection.0.3.1}\protected@file@percent }
\@writefile{lot}{\contentsline {table}{\numberline {0.6}{\ignorespaces Карта для заданной функции\relax }}{5}{table.caption.6}\protected@file@percent }
\newlabel{tab2}{{0.6}{5}{Карта для заданной функции\relax }{table.caption.6}{}}
\@writefile{toc}{\contentsline {subsection}{\numberline  {0.3.2}Логические состязания}{5}{subsection.0.3.2}\protected@file@percent }
\@writefile{lot}{\contentsline {table}{\numberline {0.7}{\ignorespaces Карта для заданной функции\relax }}{5}{table.caption.7}\protected@file@percent }
\newlabel{tab2}{{0.7}{5}{Карта для заданной функции\relax }{table.caption.7}{}}
\@writefile{toc}{\contentsline {subsection}{\numberline  {0.3.3}Функциональные состязания}{6}{subsection.0.3.3}\protected@file@percent }
\@writefile{lot}{\contentsline {table}{\numberline {0.8}{\ignorespaces Карта для заданной функции\relax }}{6}{table.caption.8}\protected@file@percent }
\newlabel{tab2}{{0.8}{6}{Карта для заданной функции\relax }{table.caption.8}{}}
\@writefile{toc}{\contentsline {section}{\numberline  {0.4}Синтез комбинационной схемы, свободной от статический и логических состязаний}{7}{section.0.4}\protected@file@percent }
\@writefile{lot}{\contentsline {table}{\numberline {0.9}{\ignorespaces Эталонная карта карно\relax }}{7}{table.caption.9}\protected@file@percent }
\newlabel{tab2}{{0.9}{7}{Эталонная карта карно\relax }{table.caption.9}{}}
\@writefile{lot}{\contentsline {table}{\numberline {0.10}{\ignorespaces Карта для заданной функции\relax }}{7}{table.caption.10}\protected@file@percent }
\newlabel{tab2}{{0.10}{7}{Карта для заданной функции\relax }{table.caption.10}{}}
\gdef \@abspage@last{9}
