{
	"inputs" : 
	[
		{
			"path" : "CMakeLists.txt"
		},
		{
			"isCMake" : true,
			"isExternal" : true,
			"path" : "/home/znol/JetBrains/Toolbox/apps/CLion/ch-0/223.8214.51/bin/cmake/linux/share/cmake-3.24/Modules/CMakeDetermineSystem.cmake"
		},
		{
			"isCMake" : true,
			"isExternal" : true,
			"path" : "/home/znol/JetBrains/Toolbox/apps/CLion/ch-0/223.8214.51/bin/cmake/linux/share/cmake-3.24/Modules/CMakeSystem.cmake.in"
		},
		{
			"path" : "CMakeFiles/3.24.2/CMakeSystem.cmake"
		},
		{
			"isCMake" : true,
			"isExternal" : true,
			"path" : "/home/znol/JetBrains/Toolbox/apps/CLion/ch-0/223.8214.51/bin/cmake/linux/share/cmake-3.24/Modules/CMakeSystemSpecificInitialize.cmake"
		},
		{
			"isCMake" : true,
			"isExternal" : true,
			"path" : "/home/znol/JetBrains/Toolbox/apps/CLion/ch-0/223.8214.51/bin/cmake/linux/share/cmake-3.24/Modules/CMakeDetermineCCompiler.cmake"
		},
		{
			"isCMake" : true,
			"isExternal" : true,
			"path" : "/home/znol/JetBrains/Toolbox/apps/CLion/ch-0/223.8214.51/bin/cmake/linux/share/cmake-3.24/Modules/CMakeDetermineCompiler.cmake"
		},
		{
			"isCMake" : true,
			"isExternal" : true,
			"path" : "/home/znol/JetBrains/Toolbox/apps/CLion/ch-0/223.8214.51/bin/cmake/linux/share/cmake-3.24/Modules/CMakeDetermineCompilerId.cmake"
		},
		{
			"isCMake" : true,
			"isExternal" : true,
			"path" : "/home/znol/JetBrains/Toolbox/apps/CLion/ch-0/223.8214.51/bin/cmake/linux/share/cmake-3.24/Modules/CMakeCompilerIdDetection.cmake"
		},
		{
			"isCMake" : true,
			"isExternal" : true,
			"path" : "/home/znol/JetBrains/Toolbox/apps/CLion/ch-0/223.8214.51/bin/cmake/linux/share/cmake-3.24/Modules/Compiler/ADSP-DetermineCompiler.cmake"
		},
		{
			"isCMake" : true,
			"isExternal" : true,
			"path" : "/home/znol/JetBrains/Toolbox/apps/CLion/ch-0/223.8214.51/bin/cmake/linux/share/cmake-3.24/Modules/Compiler/ARMCC-DetermineCompiler.cmake"
		},
		{
			"isCMake" : true,
			"isExternal" : true,
			"path" : "/home/znol/JetBrains/Toolbox/apps/CLion/ch-0/223.8214.51/bin/cmake/linux/share/cmake-3.24/Modules/Compiler/ARMClang-DetermineCompiler.cmake"
		},
		{
			"isCMake" : true,
			"isExternal" : true,
			"path" : "/home/znol/JetBrains/Toolbox/apps/CLion/ch-0/223.8214.51/bin/cmake/linux/share/cmake-3.24/Modules/Compiler/AppleClang-DetermineCompiler.cmake"
		},
		{
			"isCMake" : true,
			"isExternal" : true,
			"path" : "/home/znol/JetBrains/Toolbox/apps/CLion/ch-0/223.8214.51/bin/cmake/linux/share/cmake-3.24/Modules/Compiler/Clang-DetermineCompilerInternal.cmake"
		},
		{
			"isCMake" : true,
			"isExternal" : true,
			"path" : "/home/znol/JetBrains/Toolbox/apps/CLion/ch-0/223.8214.51/bin/cmake/linux/share/cmake-3.24/Modules/Compiler/Borland-DetermineCompiler.cmake"
		},
		{
			"isCMake" : true,
			"isExternal" : true,
			"path" : "/home/znol/JetBrains/Toolbox/apps/CLion/ch-0/223.8214.51/bin/cmake/linux/share/cmake-3.24/Modules/Compiler/Bruce-C-DetermineCompiler.cmake"
		},
		{
			"isCMake" : true,
			"isExternal" : true,
			"path" : "/home/znol/JetBrains/Toolbox/apps/CLion/ch-0/223.8214.51/bin/cmake/linux/share/cmake-3.24/Modules/Compiler/Clang-DetermineCompiler.cmake"
		},
		{
			"isCMake" : true,
			"isExternal" : true,
			"path" : "/home/znol/JetBrains/Toolbox/apps/CLion/ch-0/223.8214.51/bin/cmake/linux/share/cmake-3.24/Modules/Compiler/Clang-DetermineCompilerInternal.cmake"
		},
		{
			"isCMake" : true,
			"isExternal" : true,
			"path" : "/home/znol/JetBrains/Toolbox/apps/CLion/ch-0/223.8214.51/bin/cmake/linux/share/cmake-3.24/Modules/Compiler/Compaq-C-DetermineCompiler.cmake"
		},
		{
			"isCMake" : true,
			"isExternal" : true,
			"path" : "/home/znol/JetBrains/Toolbox/apps/CLion/ch-0/223.8214.51/bin/cmake/linux/share/cmake-3.24/Modules/Compiler/Cray-DetermineCompiler.cmake"
		},
		{
			"isCMake" : true,
			"isExternal" : true,
			"path" : "/home/znol/JetBrains/Toolbox/apps/CLion/ch-0/223.8214.51/bin/cmake/linux/share/cmake-3.24/Modules/Compiler/Embarcadero-DetermineCompiler.cmake"
		},
		{
			"isCMake" : true,
			"isExternal" : true,
			"path" : "/home/znol/JetBrains/Toolbox/apps/CLion/ch-0/223.8214.51/bin/cmake/linux/share/cmake-3.24/Modules/Compiler/Fujitsu-DetermineCompiler.cmake"
		},
		{
			"isCMake" : true,
			"isExternal" : true,
			"path" : "/home/znol/JetBrains/Toolbox/apps/CLion/ch-0/223.8214.51/bin/cmake/linux/share/cmake-3.24/Modules/Compiler/FujitsuClang-DetermineCompiler.cmake"
		},
		{
			"isCMake" : true,
			"isExternal" : true,
			"path" : "/home/znol/JetBrains/Toolbox/apps/CLion/ch-0/223.8214.51/bin/cmake/linux/share/cmake-3.24/Modules/Compiler/GHS-DetermineCompiler.cmake"
		},
		{
			"isCMake" : true,
			"isExternal" : true,
			"path" : "/home/znol/JetBrains/Toolbox/apps/CLion/ch-0/223.8214.51/bin/cmake/linux/share/cmake-3.24/Modules/Compiler/GNU-C-DetermineCompiler.cmake"
		},
		{
			"isCMake" : true,
			"isExternal" : true,
			"path" : "/home/znol/JetBrains/Toolbox/apps/CLion/ch-0/223.8214.51/bin/cmake/linux/share/cmake-3.24/Modules/Compiler/HP-C-DetermineCompiler.cmake"
		},
		{
			"isCMake" : true,
			"isExternal" : true,
			"path" : "/home/znol/JetBrains/Toolbox/apps/CLion/ch-0/223.8214.51/bin/cmake/linux/share/cmake-3.24/Modules/Compiler/IAR-DetermineCompiler.cmake"
		},
		{
			"isCMake" : true,
			"isExternal" : true,
			"path" : "/home/znol/JetBrains/Toolbox/apps/CLion/ch-0/223.8214.51/bin/cmake/linux/share/cmake-3.24/Modules/Compiler/IBMClang-C-DetermineCompiler.cmake"
		},
		{
			"isCMake" : true,
			"isExternal" : true,
			"path" : "/home/znol/JetBrains/Toolbox/apps/CLion/ch-0/223.8214.51/bin/cmake/linux/share/cmake-3.24/Modules/Compiler/Intel-DetermineCompiler.cmake"
		},
		{
			"isCMake" : true,
			"isExternal" : true,
			"path" : "/home/znol/JetBrains/Toolbox/apps/CLion/ch-0/223.8214.51/bin/cmake/linux/share/cmake-3.24/Modules/Compiler/IntelLLVM-DetermineCompiler.cmake"
		},
		{
			"isCMake" : true,
			"isExternal" : true,
			"path" : "/home/znol/JetBrains/Toolbox/apps/CLion/ch-0/223.8214.51/bin/cmake/linux/share/cmake-3.24/Modules/Compiler/LCC-C-DetermineCompiler.cmake"
		},
		{
			"isCMake" : true,
			"isExternal" : true,
			"path" : "/home/znol/JetBrains/Toolbox/apps/CLion/ch-0/223.8214.51/bin/cmake/linux/share/cmake-3.24/Modules/Compiler/MSVC-DetermineCompiler.cmake"
		},
		{
			"isCMake" : true,
			"isExternal" : true,
			"path" : "/home/znol/JetBrains/Toolbox/apps/CLion/ch-0/223.8214.51/bin/cmake/linux/share/cmake-3.24/Modules/Compiler/NVHPC-DetermineCompiler.cmake"
		},
		{
			"isCMake" : true,
			"isExternal" : true,
			"path" : "/home/znol/JetBrains/Toolbox/apps/CLion/ch-0/223.8214.51/bin/cmake/linux/share/cmake-3.24/Modules/Compiler/NVIDIA-DetermineCompiler.cmake"
		},
		{
			"isCMake" : true,
			"isExternal" : true,
			"path" : "/home/znol/JetBrains/Toolbox/apps/CLion/ch-0/223.8214.51/bin/cmake/linux/share/cmake-3.24/Modules/Compiler/OpenWatcom-DetermineCompiler.cmake"
		},
		{
			"isCMake" : true,
			"isExternal" : true,
			"path" : "/home/znol/JetBrains/Toolbox/apps/CLion/ch-0/223.8214.51/bin/cmake/linux/share/cmake-3.24/Modules/Compiler/PGI-DetermineCompiler.cmake"
		},
		{
			"isCMake" : true,
			"isExternal" : true,
			"path" : "/home/znol/JetBrains/Toolbox/apps/CLion/ch-0/223.8214.51/bin/cmake/linux/share/cmake-3.24/Modules/Compiler/PathScale-DetermineCompiler.cmake"
		},
		{
			"isCMake" : true,
			"isExternal" : true,
			"path" : "/home/znol/JetBrains/Toolbox/apps/CLion/ch-0/223.8214.51/bin/cmake/linux/share/cmake-3.24/Modules/Compiler/SCO-DetermineCompiler.cmake"
		},
		{
			"isCMake" : true,
			"isExternal" : true,
			"path" : "/home/znol/JetBrains/Toolbox/apps/CLion/ch-0/223.8214.51/bin/cmake/linux/share/cmake-3.24/Modules/Compiler/SDCC-C-DetermineCompiler.cmake"
		},
		{
			"isCMake" : true,
			"isExternal" : true,
			"path" : "/home/znol/JetBrains/Toolbox/apps/CLion/ch-0/223.8214.51/bin/cmake/linux/share/cmake-3.24/Modules/Compiler/SunPro-C-DetermineCompiler.cmake"
		},
		{
			"isCMake" : true,
			"isExternal" : true,
			"path" : "/home/znol/JetBrains/Toolbox/apps/CLion/ch-0/223.8214.51/bin/cmake/linux/share/cmake-3.24/Modules/Compiler/TI-DetermineCompiler.cmake"
		},
		{
			"isCMake" : true,
			"isExternal" : true,
			"path" : "/home/znol/JetBrains/Toolbox/apps/CLion/ch-0/223.8214.51/bin/cmake/linux/share/cmake-3.24/Modules/Compiler/TinyCC-C-DetermineCompiler.cmake"
		},
		{
			"isCMake" : true,
			"isExternal" : true,
			"path" : "/home/znol/JetBrains/Toolbox/apps/CLion/ch-0/223.8214.51/bin/cmake/linux/share/cmake-3.24/Modules/Compiler/VisualAge-C-DetermineCompiler.cmake"
		},
		{
			"isCMake" : true,
			"isExternal" : true,
			"path" : "/home/znol/JetBrains/Toolbox/apps/CLion/ch-0/223.8214.51/bin/cmake/linux/share/cmake-3.24/Modules/Compiler/IBMCPP-C-DetermineVersionInternal.cmake"
		},
		{
			"isCMake" : true,
			"isExternal" : true,
			"path" : "/home/znol/JetBrains/Toolbox/apps/CLion/ch-0/223.8214.51/bin/cmake/linux/share/cmake-3.24/Modules/Compiler/Watcom-DetermineCompiler.cmake"
		},
		{
			"isCMake" : true,
			"isExternal" : true,
			"path" : "/home/znol/JetBrains/Toolbox/apps/CLion/ch-0/223.8214.51/bin/cmake/linux/share/cmake-3.24/Modules/Compiler/XL-C-DetermineCompiler.cmake"
		},
		{
			"isCMake" : true,
			"isExternal" : true,
			"path" : "/home/znol/JetBrains/Toolbox/apps/CLion/ch-0/223.8214.51/bin/cmake/linux/share/cmake-3.24/Modules/Compiler/IBMCPP-C-DetermineVersionInternal.cmake"
		},
		{
			"isCMake" : true,
			"isExternal" : true,
			"path" : "/home/znol/JetBrains/Toolbox/apps/CLion/ch-0/223.8214.51/bin/cmake/linux/share/cmake-3.24/Modules/Compiler/XLClang-C-DetermineCompiler.cmake"
		},
		{
			"isCMake" : true,
			"isExternal" : true,
			"path" : "/home/znol/JetBrains/Toolbox/apps/CLion/ch-0/223.8214.51/bin/cmake/linux/share/cmake-3.24/Modules/Compiler/zOS-C-DetermineCompiler.cmake"
		},
		{
			"isCMake" : true,
			"isExternal" : true,
			"path" : "/home/znol/JetBrains/Toolbox/apps/CLion/ch-0/223.8214.51/bin/cmake/linux/share/cmake-3.24/Modules/Compiler/IBMCPP-C-DetermineVersionInternal.cmake"
		},
		{
			"isCMake" : true,
			"isExternal" : true,
			"path" : "/home/znol/JetBrains/Toolbox/apps/CLion/ch-0/223.8214.51/bin/cmake/linux/share/cmake-3.24/Modules/CMakeFindBinUtils.cmake"
		},
		{
			"isCMake" : true,
			"isExternal" : true,
			"path" : "/home/znol/JetBrains/Toolbox/apps/CLion/ch-0/223.8214.51/bin/cmake/linux/share/cmake-3.24/Modules/Compiler/GNU-FindBinUtils.cmake"
		},
		{
			"isCMake" : true,
			"isExternal" : true,
			"path" : "/home/znol/JetBrains/Toolbox/apps/CLion/ch-0/223.8214.51/bin/cmake/linux/share/cmake-3.24/Modules/CMakeCCompiler.cmake.in"
		},
		{
			"path" : "CMakeFiles/3.24.2/CMakeCCompiler.cmake"
		},
		{
			"isCMake" : true,
			"isExternal" : true,
			"path" : "/home/znol/JetBrains/Toolbox/apps/CLion/ch-0/223.8214.51/bin/cmake/linux/share/cmake-3.24/Modules/CMakeDetermineCXXCompiler.cmake"
		},
		{
			"isCMake" : true,
			"isExternal" : true,
			"path" : "/home/znol/JetBrains/Toolbox/apps/CLion/ch-0/223.8214.51/bin/cmake/linux/share/cmake-3.24/Modules/CMakeDetermineCompiler.cmake"
		},
		{
			"isCMake" : true,
			"isExternal" : true,
			"path" : "/home/znol/JetBrains/Toolbox/apps/CLion/ch-0/223.8214.51/bin/cmake/linux/share/cmake-3.24/Modules/Platform/Linux-Determine-CXX.cmake"
		},
		{
			"isCMake" : true,
			"isExternal" : true,
			"path" : "/home/znol/JetBrains/Toolbox/apps/CLion/ch-0/223.8214.51/bin/cmake/linux/share/cmake-3.24/Modules/CMakeDetermineCompilerId.cmake"
		},
		{
			"isCMake" : true,
			"isExternal" : true,
			"path" : "/home/znol/JetBrains/Toolbox/apps/CLion/ch-0/223.8214.51/bin/cmake/linux/share/cmake-3.24/Modules/CMakeCompilerIdDetection.cmake"
		},
		{
			"isCMake" : true,
			"isExternal" : true,
			"path" : "/home/znol/JetBrains/Toolbox/apps/CLion/ch-0/223.8214.51/bin/cmake/linux/share/cmake-3.24/Modules/Compiler/ADSP-DetermineCompiler.cmake"
		},
		{
			"isCMake" : true,
			"isExternal" : true,
			"path" : "/home/znol/JetBrains/Toolbox/apps/CLion/ch-0/223.8214.51/bin/cmake/linux/share/cmake-3.24/Modules/Compiler/ARMCC-DetermineCompiler.cmake"
		},
		{
			"isCMake" : true,
			"isExternal" : true,
			"path" : "/home/znol/JetBrains/Toolbox/apps/CLion/ch-0/223.8214.51/bin/cmake/linux/share/cmake-3.24/Modules/Compiler/ARMClang-DetermineCompiler.cmake"
		},
		{
			"isCMake" : true,
			"isExternal" : true,
			"path" : "/home/znol/JetBrains/Toolbox/apps/CLion/ch-0/223.8214.51/bin/cmake/linux/share/cmake-3.24/Modules/Compiler/AppleClang-DetermineCompiler.cmake"
		},
		{
			"isCMake" : true,
			"isExternal" : true,
			"path" : "/home/znol/JetBrains/Toolbox/apps/CLion/ch-0/223.8214.51/bin/cmake/linux/share/cmake-3.24/Modules/Compiler/Clang-DetermineCompilerInternal.cmake"
		},
		{
			"isCMake" : true,
			"isExternal" : true,
			"path" : "/home/znol/JetBrains/Toolbox/apps/CLion/ch-0/223.8214.51/bin/cmake/linux/share/cmake-3.24/Modules/Compiler/Borland-DetermineCompiler.cmake"
		},
		{
			"isCMake" : true,
			"isExternal" : true,
			"path" : "/home/znol/JetBrains/Toolbox/apps/CLion/ch-0/223.8214.51/bin/cmake/linux/share/cmake-3.24/Modules/Compiler/Clang-DetermineCompiler.cmake"
		},
		{
			"isCMake" : true,
			"isExternal" : true,
			"path" : "/home/znol/JetBrains/Toolbox/apps/CLion/ch-0/223.8214.51/bin/cmake/linux/share/cmake-3.24/Modules/Compiler/Clang-DetermineCompilerInternal.cmake"
		},
		{
			"isCMake" : true,
			"isExternal" : true,
			"path" : "/home/znol/JetBrains/Toolbox/apps/CLion/ch-0/223.8214.51/bin/cmake/linux/share/cmake-3.24/Modules/Compiler/Comeau-CXX-DetermineCompiler.cmake"
		},
		{
			"isCMake" : true,
			"isExternal" : true,
			"path" : "/home/znol/JetBrains/Toolbox/apps/CLion/ch-0/223.8214.51/bin/cmake/linux/share/cmake-3.24/Modules/Compiler/Compaq-CXX-DetermineCompiler.cmake"
		},
		{
			"isCMake" : true,
			"isExternal" : true,
			"path" : "/home/znol/JetBrains/Toolbox/apps/CLion/ch-0/223.8214.51/bin/cmake/linux/share/cmake-3.24/Modules/Compiler/Cray-DetermineCompiler.cmake"
		},
		{
			"isCMake" : true,
			"isExternal" : true,
			"path" : "/home/znol/JetBrains/Toolbox/apps/CLion/ch-0/223.8214.51/bin/cmake/linux/share/cmake-3.24/Modules/Compiler/Embarcadero-DetermineCompiler.cmake"
		},
		{
			"isCMake" : true,
			"isExternal" : true,
			"path" : "/home/znol/JetBrains/Toolbox/apps/CLion/ch-0/223.8214.51/bin/cmake/linux/share/cmake-3.24/Modules/Compiler/Fujitsu-DetermineCompiler.cmake"
		},
		{
			"isCMake" : true,
			"isExternal" : true,
			"path" : "/home/znol/JetBrains/Toolbox/apps/CLion/ch-0/223.8214.51/bin/cmake/linux/share/cmake-3.24/Modules/Compiler/FujitsuClang-DetermineCompiler.cmake"
		},
		{
			"isCMake" : true,
			"isExternal" : true,
			"path" : "/home/znol/JetBrains/Toolbox/apps/CLion/ch-0/223.8214.51/bin/cmake/linux/share/cmake-3.24/Modules/Compiler/GHS-DetermineCompiler.cmake"
		},
		{
			"isCMake" : true,
			"isExternal" : true,
			"path" : "/home/znol/JetBrains/Toolbox/apps/CLion/ch-0/223.8214.51/bin/cmake/linux/share/cmake-3.24/Modules/Compiler/GNU-CXX-DetermineCompiler.cmake"
		},
		{
			"isCMake" : true,
			"isExternal" : true,
			"path" : "/home/znol/JetBrains/Toolbox/apps/CLion/ch-0/223.8214.51/bin/cmake/linux/share/cmake-3.24/Modules/Compiler/HP-CXX-DetermineCompiler.cmake"
		},
		{
			"isCMake" : true,
			"isExternal" : true,
			"path" : "/home/znol/JetBrains/Toolbox/apps/CLion/ch-0/223.8214.51/bin/cmake/linux/share/cmake-3.24/Modules/Compiler/IAR-DetermineCompiler.cmake"
		},
		{
			"isCMake" : true,
			"isExternal" : true,
			"path" : "/home/znol/JetBrains/Toolbox/apps/CLion/ch-0/223.8214.51/bin/cmake/linux/share/cmake-3.24/Modules/Compiler/IBMClang-CXX-DetermineCompiler.cmake"
		},
		{
			"isCMake" : true,
			"isExternal" : true,
			"path" : "/home/znol/JetBrains/Toolbox/apps/CLion/ch-0/223.8214.51/bin/cmake/linux/share/cmake-3.24/Modules/Compiler/Intel-DetermineCompiler.cmake"
		},
		{
			"isCMake" : true,
			"isExternal" : true,
			"path" : "/home/znol/JetBrains/Toolbox/apps/CLion/ch-0/223.8214.51/bin/cmake/linux/share/cmake-3.24/Modules/Compiler/IntelLLVM-DetermineCompiler.cmake"
		},
		{
			"isCMake" : true,
			"isExternal" : true,
			"path" : "/home/znol/JetBrains/Toolbox/apps/CLion/ch-0/223.8214.51/bin/cmake/linux/share/cmake-3.24/Modules/Compiler/LCC-CXX-DetermineCompiler.cmake"
		},
		{
			"isCMake" : true,
			"isExternal" : true,
			"path" : "/home/znol/JetBrains/Toolbox/apps/CLion/ch-0/223.8214.51/bin/cmake/linux/share/cmake-3.24/Modules/Compiler/MSVC-DetermineCompiler.cmake"
		},
		{
			"isCMake" : true,
			"isExternal" : true,
			"path" : "/home/znol/JetBrains/Toolbox/apps/CLion/ch-0/223.8214.51/bin/cmake/linux/share/cmake-3.24/Modules/Compiler/NVHPC-DetermineCompiler.cmake"
		},
		{
			"isCMake" : true,
			"isExternal" : true,
			"path" : "/home/znol/JetBrains/Toolbox/apps/CLion/ch-0/223.8214.51/bin/cmake/linux/share/cmake-3.24/Modules/Compiler/NVIDIA-DetermineCompiler.cmake"
		},
		{
			"isCMake" : true,
			"isExternal" : true,
			"path" : "/home/znol/JetBrains/Toolbox/apps/CLion/ch-0/223.8214.51/bin/cmake/linux/share/cmake-3.24/Modules/Compiler/OpenWatcom-DetermineCompiler.cmake"
		},
		{
			"isCMake" : true,
			"isExternal" : true,
			"path" : "/home/znol/JetBrains/Toolbox/apps/CLion/ch-0/223.8214.51/bin/cmake/linux/share/cmake-3.24/Modules/Compiler/PGI-DetermineCompiler.cmake"
		},
		{
			"isCMake" : true,
			"isExternal" : true,
			"path" : "/home/znol/JetBrains/Toolbox/apps/CLion/ch-0/223.8214.51/bin/cmake/linux/share/cmake-3.24/Modules/Compiler/PathScale-DetermineCompiler.cmake"
		},
		{
			"isCMake" : true,
			"isExternal" : true,
			"path" : "/home/znol/JetBrains/Toolbox/apps/CLion/ch-0/223.8214.51/bin/cmake/linux/share/cmake-3.24/Modules/Compiler/SCO-DetermineCompiler.cmake"
		},
		{
			"isCMake" : true,
			"isExternal" : true,
			"path" : "/home/znol/JetBrains/Toolbox/apps/CLion/ch-0/223.8214.51/bin/cmake/linux/share/cmake-3.24/Modules/Compiler/SunPro-CXX-DetermineCompiler.cmake"
		},
		{
			"isCMake" : true,
			"isExternal" : true,
			"path" : "/home/znol/JetBrains/Toolbox/apps/CLion/ch-0/223.8214.51/bin/cmake/linux/share/cmake-3.24/Modules/Compiler/TI-DetermineCompiler.cmake"
		},
		{
			"isCMake" : true,
			"isExternal" : true,
			"path" : "/home/znol/JetBrains/Toolbox/apps/CLion/ch-0/223.8214.51/bin/cmake/linux/share/cmake-3.24/Modules/Compiler/VisualAge-CXX-DetermineCompiler.cmake"
		},
		{
			"isCMake" : true,
			"isExternal" : true,
			"path" : "/home/znol/JetBrains/Toolbox/apps/CLion/ch-0/223.8214.51/bin/cmake/linux/share/cmake-3.24/Modules/Compiler/IBMCPP-CXX-DetermineVersionInternal.cmake"
		},
		{
			"isCMake" : true,
			"isExternal" : true,
			"path" : "/home/znol/JetBrains/Toolbox/apps/CLion/ch-0/223.8214.51/bin/cmake/linux/share/cmake-3.24/Modules/Compiler/Watcom-DetermineCompiler.cmake"
		},
		{
			"isCMake" : true,
			"isExternal" : true,
			"path" : "/home/znol/JetBrains/Toolbox/apps/CLion/ch-0/223.8214.51/bin/cmake/linux/share/cmake-3.24/Modules/Compiler/XL-CXX-DetermineCompiler.cmake"
		},
		{
			"isCMake" : true,
			"isExternal" : true,
			"path" : "/home/znol/JetBrains/Toolbox/apps/CLion/ch-0/223.8214.51/bin/cmake/linux/share/cmake-3.24/Modules/Compiler/IBMCPP-CXX-DetermineVersionInternal.cmake"
		},
		{
			"isCMake" : true,
			"isExternal" : true,
			"path" : "/home/znol/JetBrains/Toolbox/apps/CLion/ch-0/223.8214.51/bin/cmake/linux/share/cmake-3.24/Modules/Compiler/XLClang-CXX-DetermineCompiler.cmake"
		},
		{
			"isCMake" : true,
			"isExternal" : true,
			"path" : "/home/znol/JetBrains/Toolbox/apps/CLion/ch-0/223.8214.51/bin/cmake/linux/share/cmake-3.24/Modules/Compiler/zOS-CXX-DetermineCompiler.cmake"
		},
		{
			"isCMake" : true,
			"isExternal" : true,
			"path" : "/home/znol/JetBrains/Toolbox/apps/CLion/ch-0/223.8214.51/bin/cmake/linux/share/cmake-3.24/Modules/Compiler/IBMCPP-CXX-DetermineVersionInternal.cmake"
		},
		{
			"isCMake" : true,
			"isExternal" : true,
			"path" : "/home/znol/JetBrains/Toolbox/apps/CLion/ch-0/223.8214.51/bin/cmake/linux/share/cmake-3.24/Modules/CMakeFindBinUtils.cmake"
		},
		{
			"isCMake" : true,
			"isExternal" : true,
			"path" : "/home/znol/JetBrains/Toolbox/apps/CLion/ch-0/223.8214.51/bin/cmake/linux/share/cmake-3.24/Modules/Compiler/GNU-FindBinUtils.cmake"
		},
		{
			"isCMake" : true,
			"isExternal" : true,
			"path" : "/home/znol/JetBrains/Toolbox/apps/CLion/ch-0/223.8214.51/bin/cmake/linux/share/cmake-3.24/Modules/CMakeCXXCompiler.cmake.in"
		},
		{
			"path" : "CMakeFiles/3.24.2/CMakeCXXCompiler.cmake"
		},
		{
			"isCMake" : true,
			"isExternal" : true,
			"path" : "/home/znol/JetBrains/Toolbox/apps/CLion/ch-0/223.8214.51/bin/cmake/linux/share/cmake-3.24/Modules/CMakeSystemSpecificInformation.cmake"
		},
		{
			"isCMake" : true,
			"isExternal" : true,
			"path" : "/home/znol/JetBrains/Toolbox/apps/CLion/ch-0/223.8214.51/bin/cmake/linux/share/cmake-3.24/Modules/CMakeGenericSystem.cmake"
		},
		{
			"isCMake" : true,
			"isExternal" : true,
			"path" : "/home/znol/JetBrains/Toolbox/apps/CLion/ch-0/223.8214.51/bin/cmake/linux/share/cmake-3.24/Modules/CMakeInitializeConfigs.cmake"
		},
		{
			"isCMake" : true,
			"isExternal" : true,
			"path" : "/home/znol/JetBrains/Toolbox/apps/CLion/ch-0/223.8214.51/bin/cmake/linux/share/cmake-3.24/Modules/Platform/Linux.cmake"
		},
		{
			"isCMake" : true,
			"isExternal" : true,
			"path" : "/home/znol/JetBrains/Toolbox/apps/CLion/ch-0/223.8214.51/bin/cmake/linux/share/cmake-3.24/Modules/Platform/UnixPaths.cmake"
		},
		{
			"isCMake" : true,
			"isExternal" : true,
			"path" : "/home/znol/JetBrains/Toolbox/apps/CLion/ch-0/223.8214.51/bin/cmake/linux/share/cmake-3.24/Modules/CMakeCInformation.cmake"
		},
		{
			"isCMake" : true,
			"isExternal" : true,
			"path" : "/home/znol/JetBrains/Toolbox/apps/CLion/ch-0/223.8214.51/bin/cmake/linux/share/cmake-3.24/Modules/CMakeLanguageInformation.cmake"
		},
		{
			"isCMake" : true,
			"isExternal" : true,
			"path" : "/home/znol/JetBrains/Toolbox/apps/CLion/ch-0/223.8214.51/bin/cmake/linux/share/cmake-3.24/Modules/Compiler/GNU-C.cmake"
		},
		{
			"isCMake" : true,
			"isExternal" : true,
			"path" : "/home/znol/JetBrains/Toolbox/apps/CLion/ch-0/223.8214.51/bin/cmake/linux/share/cmake-3.24/Modules/Compiler/GNU.cmake"
		},
		{
			"isCMake" : true,
			"isExternal" : true,
			"path" : "/home/znol/JetBrains/Toolbox/apps/CLion/ch-0/223.8214.51/bin/cmake/linux/share/cmake-3.24/Modules/Compiler/CMakeCommonCompilerMacros.cmake"
		},
		{
			"isCMake" : true,
			"isExternal" : true,
			"path" : "/home/znol/JetBrains/Toolbox/apps/CLion/ch-0/223.8214.51/bin/cmake/linux/share/cmake-3.24/Modules/Platform/Linux-GNU-C.cmake"
		},
		{
			"isCMake" : true,
			"isExternal" : true,
			"path" : "/home/znol/JetBrains/Toolbox/apps/CLion/ch-0/223.8214.51/bin/cmake/linux/share/cmake-3.24/Modules/Platform/Linux-GNU.cmake"
		},
		{
			"isCMake" : true,
			"isExternal" : true,
			"path" : "/home/znol/JetBrains/Toolbox/apps/CLion/ch-0/223.8214.51/bin/cmake/linux/share/cmake-3.24/Modules/CMakeCommonLanguageInclude.cmake"
		},
		{
			"isCMake" : true,
			"isExternal" : true,
			"path" : "/home/znol/JetBrains/Toolbox/apps/CLion/ch-0/223.8214.51/bin/cmake/linux/share/cmake-3.24/Modules/CMakeTestCCompiler.cmake"
		},
		{
			"isCMake" : true,
			"isExternal" : true,
			"path" : "/home/znol/JetBrains/Toolbox/apps/CLion/ch-0/223.8214.51/bin/cmake/linux/share/cmake-3.24/Modules/CMakeTestCompilerCommon.cmake"
		},
		{
			"isCMake" : true,
			"isExternal" : true,
			"path" : "/home/znol/JetBrains/Toolbox/apps/CLion/ch-0/223.8214.51/bin/cmake/linux/share/cmake-3.24/Modules/CMakeDetermineCompilerABI.cmake"
		},
		{
			"isCMake" : true,
			"isExternal" : true,
			"path" : "/home/znol/JetBrains/Toolbox/apps/CLion/ch-0/223.8214.51/bin/cmake/linux/share/cmake-3.24/Modules/CMakeParseImplicitIncludeInfo.cmake"
		},
		{
			"isCMake" : true,
			"isExternal" : true,
			"path" : "/home/znol/JetBrains/Toolbox/apps/CLion/ch-0/223.8214.51/bin/cmake/linux/share/cmake-3.24/Modules/CMakeParseImplicitLinkInfo.cmake"
		},
		{
			"isCMake" : true,
			"isExternal" : true,
			"path" : "/home/znol/JetBrains/Toolbox/apps/CLion/ch-0/223.8214.51/bin/cmake/linux/share/cmake-3.24/Modules/CMakeParseLibraryArchitecture.cmake"
		},
		{
			"isCMake" : true,
			"isExternal" : true,
			"path" : "/home/znol/JetBrains/Toolbox/apps/CLion/ch-0/223.8214.51/bin/cmake/linux/share/cmake-3.24/Modules/CMakeTestCompilerCommon.cmake"
		},
		{
			"isCMake" : true,
			"isExternal" : true,
			"path" : "/home/znol/JetBrains/Toolbox/apps/CLion/ch-0/223.8214.51/bin/cmake/linux/share/cmake-3.24/Modules/CMakeCCompilerABI.c"
		},
		{
			"isCMake" : true,
			"isExternal" : true,
			"path" : "/home/znol/JetBrains/Toolbox/apps/CLion/ch-0/223.8214.51/bin/cmake/linux/share/cmake-3.24/Modules/CMakeDetermineCompileFeatures.cmake"
		},
		{
			"isCMake" : true,
			"isExternal" : true,
			"path" : "/home/znol/JetBrains/Toolbox/apps/CLion/ch-0/223.8214.51/bin/cmake/linux/share/cmake-3.24/Modules/Internal/FeatureTesting.cmake"
		},
		{
			"isCMake" : true,
			"isExternal" : true,
			"path" : "/home/znol/JetBrains/Toolbox/apps/CLion/ch-0/223.8214.51/bin/cmake/linux/share/cmake-3.24/Modules/CMakeCCompiler.cmake.in"
		},
		{
			"path" : "CMakeFiles/3.24.2/CMakeCCompiler.cmake"
		},
		{
			"isCMake" : true,
			"isExternal" : true,
			"path" : "/home/znol/JetBrains/Toolbox/apps/CLion/ch-0/223.8214.51/bin/cmake/linux/share/cmake-3.24/Modules/CMakeCXXInformation.cmake"
		},
		{
			"isCMake" : true,
			"isExternal" : true,
			"path" : "/home/znol/JetBrains/Toolbox/apps/CLion/ch-0/223.8214.51/bin/cmake/linux/share/cmake-3.24/Modules/CMakeLanguageInformation.cmake"
		},
		{
			"isCMake" : true,
			"isExternal" : true,
			"path" : "/home/znol/JetBrains/Toolbox/apps/CLion/ch-0/223.8214.51/bin/cmake/linux/share/cmake-3.24/Modules/Compiler/GNU-CXX.cmake"
		},
		{
			"isCMake" : true,
			"isExternal" : true,
			"path" : "/home/znol/JetBrains/Toolbox/apps/CLion/ch-0/223.8214.51/bin/cmake/linux/share/cmake-3.24/Modules/Compiler/GNU.cmake"
		},
		{
			"isCMake" : true,
			"isExternal" : true,
			"path" : "/home/znol/JetBrains/Toolbox/apps/CLion/ch-0/223.8214.51/bin/cmake/linux/share/cmake-3.24/Modules/Platform/Linux-GNU-CXX.cmake"
		},
		{
			"isCMake" : true,
			"isExternal" : true,
			"path" : "/home/znol/JetBrains/Toolbox/apps/CLion/ch-0/223.8214.51/bin/cmake/linux/share/cmake-3.24/Modules/Platform/Linux-GNU.cmake"
		},
		{
			"isCMake" : true,
			"isExternal" : true,
			"path" : "/home/znol/JetBrains/Toolbox/apps/CLion/ch-0/223.8214.51/bin/cmake/linux/share/cmake-3.24/Modules/CMakeCommonLanguageInclude.cmake"
		},
		{
			"isCMake" : true,
			"isExternal" : true,
			"path" : "/home/znol/JetBrains/Toolbox/apps/CLion/ch-0/223.8214.51/bin/cmake/linux/share/cmake-3.24/Modules/CMakeTestCXXCompiler.cmake"
		},
		{
			"isCMake" : true,
			"isExternal" : true,
			"path" : "/home/znol/JetBrains/Toolbox/apps/CLion/ch-0/223.8214.51/bin/cmake/linux/share/cmake-3.24/Modules/CMakeTestCompilerCommon.cmake"
		},
		{
			"isCMake" : true,
			"isExternal" : true,
			"path" : "/home/znol/JetBrains/Toolbox/apps/CLion/ch-0/223.8214.51/bin/cmake/linux/share/cmake-3.24/Modules/CMakeDetermineCompilerABI.cmake"
		},
		{
			"isCMake" : true,
			"isExternal" : true,
			"path" : "/home/znol/JetBrains/Toolbox/apps/CLion/ch-0/223.8214.51/bin/cmake/linux/share/cmake-3.24/Modules/CMakeParseImplicitIncludeInfo.cmake"
		},
		{
			"isCMake" : true,
			"isExternal" : true,
			"path" : "/home/znol/JetBrains/Toolbox/apps/CLion/ch-0/223.8214.51/bin/cmake/linux/share/cmake-3.24/Modules/CMakeParseImplicitLinkInfo.cmake"
		},
		{
			"isCMake" : true,
			"isExternal" : true,
			"path" : "/home/znol/JetBrains/Toolbox/apps/CLion/ch-0/223.8214.51/bin/cmake/linux/share/cmake-3.24/Modules/CMakeParseLibraryArchitecture.cmake"
		},
		{
			"isCMake" : true,
			"isExternal" : true,
			"path" : "/home/znol/JetBrains/Toolbox/apps/CLion/ch-0/223.8214.51/bin/cmake/linux/share/cmake-3.24/Modules/CMakeTestCompilerCommon.cmake"
		},
		{
			"isCMake" : true,
			"isExternal" : true,
			"path" : "/home/znol/JetBrains/Toolbox/apps/CLion/ch-0/223.8214.51/bin/cmake/linux/share/cmake-3.24/Modules/CMakeCXXCompilerABI.cpp"
		},
		{
			"isCMake" : true,
			"isExternal" : true,
			"path" : "/home/znol/JetBrains/Toolbox/apps/CLion/ch-0/223.8214.51/bin/cmake/linux/share/cmake-3.24/Modules/CMakeDetermineCompileFeatures.cmake"
		},
		{
			"isCMake" : true,
			"isExternal" : true,
			"path" : "/home/znol/JetBrains/Toolbox/apps/CLion/ch-0/223.8214.51/bin/cmake/linux/share/cmake-3.24/Modules/Internal/FeatureTesting.cmake"
		},
		{
			"isCMake" : true,
			"isExternal" : true,
			"path" : "/home/znol/JetBrains/Toolbox/apps/CLion/ch-0/223.8214.51/bin/cmake/linux/share/cmake-3.24/Modules/CMakeCXXCompiler.cmake.in"
		},
		{
			"path" : "CMakeFiles/3.24.2/CMakeCXXCompiler.cmake"
		},
		{
			"isExternal" : true,
			"path" : "/usr/lib/cmake/Catch2/Catch2ConfigVersion.cmake"
		},
		{
			"isExternal" : true,
			"path" : "/usr/lib/cmake/Catch2/Catch2Config.cmake"
		},
		{
			"isExternal" : true,
			"path" : "/usr/lib/cmake/Catch2/Catch2Targets.cmake"
		}
	],
	"kind" : "cmakeFiles",
	"paths" : 
	{
		"build" : "/home/znol/labs_mephi/3sem/4",
		"source" : "/home/znol/labs_mephi/3sem/4"
	},
	"version" : 
	{
		"major" : 1,
		"minor" : 0
	}
}
